…
## Exploring the data

Now that we have loaded in the data, let's take a look at the csv. If we just run a line with the name of the tibble - i.e., `prior_survey` then we should receive a printout that shows the first several rows of that tibble and a listing of all the columns, along with the data types (i.e., double for numeric values, character for strings, etc) of each column.


```r
prior_survey
```

```
## # A tibble: 24 x 49
##    student_id `I have taken a~ `I am intereste~ `I know what a ~
##         <dbl> <chr>            <chr>            <chr>           
##  1          1 Somewhat disagr~ Somewhat agree   Strongly disagr~
##  2          2 Strongly disagr~ Neither agree n~ Somewhat agree  
##  3          3 Strongly disagr~ Somewhat agree   Somewhat agree  
##  4          4 Somewhat disagr~ Strongly agree   Strongly disagr~
##  5          5 Somewhat agree   Strongly agree   Somewhat agree  
##  6          6 Somewhat disagr~ Somewhat agree   Somewhat disagr~
##  7          7 Strongly disagr~ Somewhat agree   Strongly disagr~
##  8          8 Somewhat agree   Somewhat agree   Somewhat agree  
##  9          9 Strongly disagr~ Strongly agree   Somewhat agree  
## 10         10 Neither agree n~ Strongly agree   Somewhat agree  
## # ... with 14 more rows, and 45 more variables: `I know what a type II error
## #   is` <chr>, `I know what a (statistical) confidence level is` <chr>, `I know
## #   what a p value is` <chr>, `I know what p-hacking means` <chr>, `I know what
## #   statistical power means` <chr>, `I have heard of frequentist statistics
## #   before` <chr>, `I have heard of Bayesian statistics before` <chr>, `I have
## #   heard the term "parametric statistics" before` <chr>, `I have heard the
## #   term "non-parametric statistics" before` <chr>, `I know what a histogram
## #   is.` <chr>, `I know what a probability distribution is.` <chr>, `I know
## #   what a random variable is.` <chr>, `I know what a probability distribution
…
When we do this, we see that there are a bunch of columns that have spaces in their names. This is okay (in the sense that R can handle this), but it can be a little frustrating to work with. Let's try cleaning the column names with `clean_names()` from the janitor package. This function will replace the spaces in the column names with underscores and make everything lower case. So, a column name like "I have take a statistics course before" will be changed to "i_have_taken_a_statistics_course_before".


```r
prior_survey <- prior_survey %>% clean_names() # from janitor package
```

Look at the data in prior_survey again and see if anything looks different (hint: it should).

```r
prior_survey
```

```
## # A tibble: 24 x 49
##    student_id i_have_taken_a_~ i_am_interested~ i_know_what_a_t~
##         <dbl> <chr>            <chr>            <chr>           
##  1          1 Somewhat disagr~ Somewhat agree   Strongly disagr~
##  2          2 Strongly disagr~ Neither agree n~ Somewhat agree  
##  3          3 Strongly disagr~ Somewhat agree   Somewhat agree  
##  4          4 Somewhat disagr~ Strongly agree   Strongly disagr~
##  5          5 Somewhat agree   Strongly agree   Somewhat agree  
##  6          6 Somewhat disagr~ Somewhat agree   Somewhat disagr~
##  7          7 Strongly disagr~ Somewhat agree   Strongly disagr~
##  8          8 Somewhat agree   Somewhat agree   Somewhat agree  
##  9          9 Strongly disagr~ Strongly agree   Somewhat agree  
## 10         10 Neither agree n~ Strongly agree   Somewhat agree  
## # ... with 14 more rows, and 45 more variables:
## #   i_know_what_a_type_ii_error_is <chr>,
## #   i_know_what_a_statistical_confidence_level_is <chr>,
## #   i_know_what_a_p_value_is <chr>, i_know_what_p_hacking_means <chr>,
## #   i_know_what_statistical_power_means <chr>,
## #   i_have_heard_of_frequentist_statistics_before <chr>,
## #   i_have_heard_of_bayesian_statistics_before <chr>,
## #   i_have_heard_the_term_parametric_statistics_before <chr>,
## #   i_have_heard_the_term_non_parametric_statistics_before <chr>,
…
If we wanted to get extra fancy, we could first convert the data from a wide format to a long format and then start plotting all the items together.


Converting to long format would produce something like this:

```r
prior_survey %>% 
  gather(key = "survey_item", value = "survey_response")
```

```
## # A tibble: 1,176 x 2
##    survey_item survey_response
##    <chr>       <chr>          
##  1 student_id  1              
##  2 student_id  2              
##  3 student_id  3              
##  4 student_id  4              
##  5 student_id  5              
##  6 student_id  6              
##  7 student_id  7              
##  8 student_id  8              
##  9 student_id  9              
## 10 student_id  10             
## # ... with 1,166 more rows
```
…
A basic operation we do a lot is to filter the data so that we are working with a subset of all that we have.


We can do this with the filter() function, part of the dplyr package (in the tidyverse collection of packages).


Let's say we want to look at the schools with div_num values less than 50.

```r
newdf %>% filter(div_num < 50)
```

```
## # A tibble: 800 x 137
##    sch_id div_num div_name school_num school_name school_name2 type0809
##    <chr>    <dbl> <chr>    <chr>      <chr>       <chr>        <chr>   
##  1 001-0~       1 Accomac~ "0070\xa0" NANDUA HIGH <NA>         SCH-HIGH
##  2 001-0~       1 Accomac~ "0080\xa0" CHINCOTEAG~ <NA>         SCH-ELEM
##  3 001-0~       1 Accomac~ "0530\xa0" TANGIER CO~ <NA>         SCH-COMB
##  4 001-0~       1 Accomac~ "0540\xa0" ARCADIA HI~ <NA>         SCH-HIGH
##  5 001-0~       1 Accomac~ "0580\xa0" CHINCOTEAG~ <NA>         SCH-COMB
##  6 001-0~       1 Accomac~ "0590\xa0" PUNGOTEAGU~ <NA>         SCH-ELEM
##  7 001-0~       1 Accomac~ "0600\xa0" KEGOTANK E~ <NA>         SCH-ELEM
##  8 001-0~       1 Accomac~ "0701\xa0" ACCAWMACKE~ <NA>         SCH-ELEM
##  9 001-0~       1 Accomac~ "0702\xa0" METOMPKIN ~ <NA>         SCH-ELEM
## 10 001-0~       1 Accomac~ "0703\xa0" NANDUA MID~ <NA>         SCH-MID 
## # ... with 790 more rows, and 130 more variables: lowgrade_2008 <chr>,
## #   higrade_2008 <chr>, totalFT_2008 <dbl>, total_2008 <dbl>, snp_0809 <chr>,
## #   free_elig_0809 <chr>, free_per_0809 <chr>, red_elig_0809 <chr>,
## #   red_per_0809 <chr>, totalFRL_0809 <dbl>, totalper_0809 <dbl>,
## #   type0910 <chr>, lowgrade_2009 <chr>, higrade_2009 <chr>,
## #   totalFT_2009 <dbl>, total_2009 <dbl>, snp_0910 <chr>, free_elig_0910 <chr>,
## #   free_per_0910 <chr>, red_elig_0910 <chr>, red_per_0910 <chr>,
## #   totalFRL_09010 <dbl>, totalper_0910 <dbl>, type1011 <chr>,
## #   lowgrade_2010 <chr>, higrade_2010 <chr>, totalFT_2010 <dbl>,
…
Or, if we want to look at schools where the highest grade in 2008 was grade five, we can try:


```r
newdf %>% filter(higrade_2008 == "5") # this returns a subsetted dataframe with 878 rows
```

```
## # A tibble: 878 x 137
##    sch_id div_num div_name school_num school_name school_name2 type0809
##    <chr>    <dbl> <chr>    <chr>      <chr>       <chr>        <chr>   
##  1 001-0~       1 Accomac~ "0080\xa0" CHINCOTEAG~ <NA>         SCH-ELEM
##  2 001-0~       1 Accomac~ "0590\xa0" PUNGOTEAGU~ <NA>         SCH-ELEM
##  3 001-0~       1 Accomac~ "0600\xa0" KEGOTANK E~ <NA>         SCH-ELEM
##  4 001-0~       1 Accomac~ "0701\xa0" ACCAWMACKE~ <NA>         SCH-ELEM
##  5 001-0~       1 Accomac~ "0702\xa0" METOMPKIN ~ <NA>         SCH-ELEM
##  6 002-0~       2 Albemar~ "0010\xa0" HOLLYMEAD ~ <NA>         SCH-ELEM
##  7 002-0~       2 Albemar~ "0030\xa0" SCOTTSVILL~ <NA>         SCH-ELEM
##  8 002-0~       2 Albemar~ "0040\xa0" MARY CARR ~ <NA>         SCH-ELEM
##  9 002-0~       2 Albemar~ "0100\xa0" BROADUS WO~ <NA>         SCH-ELEM
## 10 002-0~       2 Albemar~ "0150\xa0" PAUL H CAL~ <NA>         SCH-ELEM
## # ... with 868 more rows, and 130 more variables: lowgrade_2008 <chr>,
## #   higrade_2008 <chr>, totalFT_2008 <dbl>, total_2008 <dbl>, snp_0809 <chr>,
## #   free_elig_0809 <chr>, free_per_0809 <chr>, red_elig_0809 <chr>,
## #   red_per_0809 <chr>, totalFRL_0809 <dbl>, totalper_0809 <dbl>,
## #   type0910 <chr>, lowgrade_2009 <chr>, higrade_2009 <chr>,
## #   totalFT_2009 <dbl>, total_2009 <dbl>, snp_0910 <chr>, free_elig_0910 <chr>,
## #   free_per_0910 <chr>, red_elig_0910 <chr>, red_per_0910 <chr>,
## #   totalFRL_09010 <dbl>, totalper_0910 <dbl>, type1011 <chr>,
## #   lowgrade_2010 <chr>, higrade_2010 <chr>, totalFT_2010 <dbl>,
…
If we wanted to filter on numeric values instead, we would want to do something like this:

```r
newdf %>% 
  mutate(higrade_2008 = as.numeric(higrade_2008)) %>% 
  filter(higrade_2008 == 5) # again, this returns a subsetted dataframe with 878 rows
```

```
## Warning in mask$eval_all_mutate(dots[[i]]): NAs introduced by coercion
```

```
## # A tibble: 878 x 137
##    sch_id div_num div_name school_num school_name school_name2 type0809
##    <chr>    <dbl> <chr>    <chr>      <chr>       <chr>        <chr>   
##  1 001-0~       1 Accomac~ "0080\xa0" CHINCOTEAG~ <NA>         SCH-ELEM
##  2 001-0~       1 Accomac~ "0590\xa0" PUNGOTEAGU~ <NA>         SCH-ELEM
##  3 001-0~       1 Accomac~ "0600\xa0" KEGOTANK E~ <NA>         SCH-ELEM
##  4 001-0~       1 Accomac~ "0701\xa0" ACCAWMACKE~ <NA>         SCH-ELEM
##  5 001-0~       1 Accomac~ "0702\xa0" METOMPKIN ~ <NA>         SCH-ELEM
##  6 002-0~       2 Albemar~ "0010\xa0" HOLLYMEAD ~ <NA>         SCH-ELEM
##  7 002-0~       2 Albemar~ "0030\xa0" SCOTTSVILL~ <NA>         SCH-ELEM
##  8 002-0~       2 Albemar~ "0040\xa0" MARY CARR ~ <NA>         SCH-ELEM
##  9 002-0~       2 Albemar~ "0100\xa0" BROADUS WO~ <NA>         SCH-ELEM
## 10 002-0~       2 Albemar~ "0150\xa0" PAUL H CAL~ <NA>         SCH-ELEM
## # ... with 868 more rows, and 130 more variables: lowgrade_2008 <chr>,
## #   higrade_2008 <dbl>, totalFT_2008 <dbl>, total_2008 <dbl>, snp_0809 <chr>,
## #   free_elig_0809 <chr>, free_per_0809 <chr>, red_elig_0809 <chr>,
## #   red_per_0809 <chr>, totalFRL_0809 <dbl>, totalper_0809 <dbl>,
## #   type0910 <chr>, lowgrade_2009 <chr>, higrade_2009 <chr>,
## #   totalFT_2009 <dbl>, total_2009 <dbl>, snp_0910 <chr>, free_elig_0910 <chr>,
## #   free_per_0910 <chr>, red_elig_0910 <chr>, red_per_0910 <chr>,
## #   totalFRL_09010 <dbl>, totalper_0910 <dbl>, type1011 <chr>,
## #   lowgrade_2010 <chr>, higrade_2010 <chr>, totalFT_2010 <dbl>,
…
