Chapter2 Week 2: Intro stats, Data & Distributions, Intro R & RStudio | ENGE 5714 Course Notes 2021
…
## Parsed with column specification:
## cols(
##   .default = col_character(),
##   student_id = col_double()
## )

## See spec(...) for full column specifications.

2.4 Exploring the data

Now that we have loaded in the data, let’s take a look at the csv. If we just run a line with the name of the tibble - i.e., prior_survey then we should receive a printout that shows the first several rows of that tibble and a listing of all the columns, along with the data types (i.e., double for numeric values, character for strings, etc) of each column.

prior_survey

## # A tibble: 24 x 49
##    student_id `I have taken a~ `I am intereste~ `I know what a ~
##         <dbl> <chr>            <chr>            <chr>           
##  1          1 Somewhat disagr~ Somewhat agree   Strongly disagr~
##  2          2 Strongly disagr~ Neither agree n~ Somewhat agree  
##  3          3 Strongly disagr~ Somewhat agree   Somewhat agree  
##  4          4 Somewhat disagr~ Strongly agree   Strongly disagr~
##  5          5 Somewhat agree   Strongly agree   Somewhat agree  
##  6          6 Somewhat disagr~ Somewhat agree   Somewhat disagr~
##  7          7 Strongly disagr~ Somewhat agree   Strongly disagr~
##  8          8 Somewhat agree   Somewhat agree   Somewhat agree  
##  9          9 Strongly disagr~ Strongly agree   Somewhat agree  
## 10         10 Neither agree n~ Strongly agree   Somewhat agree  
## # ... with 14 more rows, and 45 more variables: `I know what a type II error
## #   is` <chr>, `I know what a (statistical) confidence level is` <chr>, `I know
## #   what a p value is` <chr>, `I know what p-hacking means` <chr>, `I know what
## #   statistical power means` <chr>, `I have heard of frequentist statistics
## #   before` <chr>, `I have heard of Bayesian statistics before` <chr>, `I have
## #   heard the term "parametric statistics" before` <chr>, `I have heard the
## #   term "non-parametric statistics" before` <chr>, `I know what a histogram
## #   is.` <chr>, `I know what a probability distribution is.` <chr>, `I know
## #   what a random variable is.` <chr>, `I know what a probability distribution
…
When we do this, we see that there are a bunch of columns that have spaces in their names. This is okay (in the sense that R can handle this), but it can be a little frustrating to work with. Let’s try cleaning the column names with clean_names() from the janitor package. This function will replace the spaces in the column names with underscores and make everything lower case. So, a column name like “I have take a statistics course before” will be changed to “i_have_taken_a_statistics_course_before.”

prior_survey <- prior_survey %>% clean_names() # from janitor package

Look at the data in prior_survey again and see if anything looks different (hint: it should).

prior_survey

## # A tibble: 24 x 49
##    student_id i_have_taken_a_~ i_am_interested~ i_know_what_a_t~
##         <dbl> <chr>            <chr>            <chr>           
##  1          1 Somewhat disagr~ Somewhat agree   Strongly disagr~
##  2          2 Strongly disagr~ Neither agree n~ Somewhat agree  
##  3          3 Strongly disagr~ Somewhat agree   Somewhat agree  
##  4          4 Somewhat disagr~ Strongly agree   Strongly disagr~
##  5          5 Somewhat agree   Strongly agree   Somewhat agree  
##  6          6 Somewhat disagr~ Somewhat agree   Somewhat disagr~
##  7          7 Strongly disagr~ Somewhat agree   Strongly disagr~
##  8          8 Somewhat agree   Somewhat agree   Somewhat agree  
##  9          9 Strongly disagr~ Strongly agree   Somewhat agree  
## 10         10 Neither agree n~ Strongly agree   Somewhat agree  
## # ... with 14 more rows, and 45 more variables:
## #   i_know_what_a_type_ii_error_is <chr>,
## #   i_know_what_a_statistical_confidence_level_is <chr>,
## #   i_know_what_a_p_value_is <chr>, i_know_what_p_hacking_means <chr>,
## #   i_know_what_statistical_power_means <chr>,
## #   i_have_heard_of_frequentist_statistics_before <chr>,
## #   i_have_heard_of_bayesian_statistics_before <chr>,
## #   i_have_heard_the_term_parametric_statistics_before <chr>,
## #   i_have_heard_the_term_non_parametric_statistics_before <chr>,
…
If we wanted to get extra fancy, we could first convert the data from a wide format to a long format and then start plotting all the items together.

Converting to long format would produce something like this:

prior_survey %>% 
  gather(key = "survey_item", value = "survey_response")

## # A tibble: 1,176 x 2
##    survey_item survey_response
##    <chr>       <chr>          
##  1 student_id  1              
##  2 student_id  2              
##  3 student_id  3              
##  4 student_id  4              
##  5 student_id  5              
##  6 student_id  6              
##  7 student_id  7              
##  8 student_id  8              
##  9 student_id  9              
## 10 student_id  10             
## # ... with 1,166 more rows
…
